…
    ┌──────────────────────────────────┬──────────────┐
    │            discipline            │ total_medals │
    │             varchar              │    int64     │
    ├──────────────────────────────────┼──────────────┤
    │ Athletics                        │         3177 │
    │ Swimming (Aquatics)              │         1785 │
    │ Wrestling                        │         1359 │
    │ Artistic Gymnastics (Gymnastics) │         1009 │
    │ Boxing                           │          997 │
    │ Shooting                         │          895 │
    │ Rowing                           │          825 │
    │ Fencing                          │          709 │
    │ Weightlifting                    │          666 │
    │ Speed Skating (Skating)          │          607 │
    │            ·                     │            · │
    │            ·                     │            · │
    │            ·                     │            · │
    │ Cycling BMX Freestyle (Cycling)  │            6 │
    │ Racquets                         │            5 │
    │ Lacrosse                         │            5 │
    │ Roque                            │            3 │
    │ Equestrian Driving (Equestrian)  │            3 │
    │ Motorboating                     │            3 │
    │ Military Ski Patrol (Skiing)     │            3 │
    │ Art Competitions                 │            2 │
    │ Cricket                          │            2 │
    │ Basque pelota                    │            1 │
    ├──────────────────────────────────┴──────────────┤
    │ 80 rows (20 shown)                    2 columns │
…
    ┌────────────────────────────┬───────────────┐
    │            NOC             │ athlete_count │
    │          varchar           │     int64     │
    ├────────────────────────────┼───────────────┤
    │ United States              │          9921 │
    │ Great Britain              │          6395 │
    │ France                     │          6291 │
    │ Canada                     │          5203 │
    │ Italy                      │          5131 │
    │ Germany                    │          4640 │
    │ Japan                      │          4548 │
    │ Australia                  │          4101 │
    │ Sweden                     │          3875 │
    │ People's Republic of China │          3081 │
    │        ·                   │             · │
    │        ·                   │             · │
    │        ·                   │             · │
    │ Argentina Spain            │             1 │
    │ France Hungary             │             1 │
    │ Great Britain South Africa │             1 │
    │ Turkmenistan Türkiye       │             1 │
    │ Cuba Mexico                │             1 │
    │ Andorra Spain              │             1 │
    │ Mozambique South Africa    │             1 │
    │ Canada Russian Federation  │             1 │
    │ Australia Croatia          │             1 │
    │ Australia Belgium          │             1 │
    ├────────────────────────────┴───────────────┤
    │ 696 rows (20 shown)              2 columns │
…
    ┌───────┬───────────────┐
    │ year  │ athlete_count │
    │ int32 │     int64     │
    ├───────┼───────────────┤
    │  1896 │           182 │
    │  1900 │          1234 │
    │  1904 │           667 │
    │  1908 │          2112 │
    │  1912 │          2447 │
    │  1920 │          2689 │
    │  1924 │          3494 │
    │  1928 │          3427 │
    │  1932 │          1627 │
    │  1936 │          4661 │
    │    ·  │            ·  │
    │    ·  │            ·  │
    │    ·  │            ·  │
    │  2006 │          2505 │
    │  2008 │         10956 │
    │  2010 │          2537 │
    │  2012 │         10572 │
    │  2014 │          2765 │
    │  2016 │         11210 │
    │  2018 │          2799 │
    │  2020 │         11125 │
    │  2022 │          2470 │
    │  NULL │          1026 │
    ├───────┴───────────────┤
    │  38 rows (20 shown)   │
…
